Primary Elections Data Documentation
================

Candidate-level data
--------------------

`2016_primary_long` has vote and vote share at the candidate level, for state-wide candidate races (President, Senate, Governor)

    ## # A tibble: 62,219 x 11
    ##       office    st         county  fips       candidate party  vote
    ##        <chr> <chr>          <chr> <int>           <chr> <chr> <dbl>
    ##  1 President    AL Autauga County  1001      H. Clinton     D  2387
    ##  2 President    AL Autauga County  1001      B. Sanders     D   544
    ##  3 President    AL Autauga County  1001     Uncommitted     D    42
    ##  4 President    AL Autauga County  1001 R. De La Fuente     D     6
    ##  5 President    AL Autauga County  1001     M. O'Malley     D     3
    ##  6 President    AL Autauga County  1001        D. Trump     R  5387
    ##  7 President    AL Autauga County  1001         T. Cruz     R  2482
    ##  8 President    AL Autauga County  1001        M. Rubio     R  1785
    ##  9 President    AL Autauga County  1001       B. Carson     R  1764
    ## 10 President    AL Autauga County  1001       J. Kasich     R   421
    ## # ... with 62,209 more rows, and 4 more variables: state <chr>,
    ## #   ballot <chr>, lastname <chr>, geo_race_vote_pct <dbl>
…
